Score PLANES components — plane_score • rplanes
…
#> [1] 5
#> 
#> $scores_summary$US$score
#> [1] 0.2
#> 
#> $scores_summary$US$components
#> [1] "cover;diff;repeats;taper;trend"
#> 
#> $scores_summary$US$flagged
#> [1] "cover"
#> 
#> 
#> 
#> $scores_raw
#> # A tibble: 250 × 3
#>    location component indicator
#>    <chr>    <chr>     <lgl>    
#>  1 02       cover     TRUE     
#>  2 02       diff      FALSE    
#>  3 02       repeats   FALSE    
#>  4 02       taper     FALSE    
#>  5 02       trend     FALSE    
#>  6 04       cover     FALSE    
#>  7 04       diff      FALSE    
#>  8 04       repeats   FALSE    
#>  9 04       taper     FALSE    
#> 10 04       trend     FALSE    
#> # ℹ 240 more rows
…
#> [1] 2
#> 
#> $scores_summary$US$score
#> [1] 0.5
#> 
#> $scores_summary$US$components
#> [1] "cover;taper"
#> 
#> $scores_summary$US$flagged
#> [1] "cover"
#> 
#> 
#> 
#> $scores_raw
#> # A tibble: 100 × 3
#>    location component indicator
#>    <chr>    <chr>     <lgl>    
#>  1 02       cover     TRUE     
#>  2 02       taper     FALSE    
#>  3 04       cover     FALSE    
#>  4 04       taper     FALSE    
#>  5 05       cover     FALSE    
#>  6 05       taper     FALSE    
#>  7 06       cover     FALSE    
#>  8 06       taper     FALSE    
#>  9 08       cover     FALSE    
#> 10 08       taper     FALSE    
#> # ℹ 90 more rows
…
#> [1] 5
#> 
#> $scores_summary$US$score
#> [1] 0.2
#> 
#> $scores_summary$US$components
#> [1] "cover;diff;repeats;taper;trend"
#> 
#> $scores_summary$US$flagged
#> [1] "cover"
#> 
#> 
#> 
#> $scores_raw
#> # A tibble: 250 × 3
#>    location component indicator
#>    <chr>    <chr>     <lgl>    
#>  1 02       cover     TRUE     
#>  2 02       diff      FALSE    
#>  3 02       repeats   FALSE    
#>  4 02       taper     FALSE    
#>  5 02       trend     FALSE    
#>  6 04       cover     FALSE    
#>  7 04       diff      FALSE    
#>  8 04       repeats   FALSE    
#>  9 04       taper     FALSE    
#> 10 04       trend     FALSE    
#> # ℹ 240 more rows
…
