Score PLANES components — plane_score • rplanes
…
#> [1] 1
#> 
#> $scores_summary$US$n_components
#> [1] 5
#> 
#> $scores_summary$US$score
#> [1] 0.2
#> 
#> $scores_summary$US$components
#> [1] "cover;diff;repeats;taper;trend"
#> 
#> 
#> 
#> $scores_raw
#> # A tibble: 250 × 3
#>    component location indicator
#>    <chr>     <chr>    <lgl>    
#>  1 cover     02       TRUE     
#>  2 diff      02       FALSE    
#>  3 repeats   02       FALSE    
#>  4 taper     02       FALSE    
#>  5 trend     02       FALSE    
#>  6 cover     04       FALSE    
#>  7 diff      04       FALSE    
#>  8 repeats   04       FALSE    
#>  9 taper     04       FALSE    
#> 10 trend     04       FALSE    
#> # ℹ 240 more rows
…
#> [1] 1
#> 
#> $scores_summary$US$n_components
#> [1] 2
#> 
#> $scores_summary$US$score
#> [1] 0.5
#> 
#> $scores_summary$US$components
#> [1] "cover;taper"
#> 
#> 
#> 
#> $scores_raw
#> # A tibble: 100 × 3
#>    component location indicator
#>    <chr>     <chr>    <lgl>    
#>  1 cover     02       TRUE     
#>  2 taper     02       FALSE    
#>  3 cover     04       FALSE    
#>  4 taper     04       FALSE    
#>  5 cover     05       FALSE    
#>  6 taper     05       FALSE    
#>  7 cover     06       FALSE    
#>  8 taper     06       FALSE    
#>  9 cover     08       FALSE    
#> 10 taper     08       FALSE    
#> # ℹ 90 more rows
…
#> [1] 1
#> 
#> $scores_summary$US$n_components
#> [1] 5
#> 
#> $scores_summary$US$score
#> [1] 0.2
#> 
#> $scores_summary$US$components
#> [1] "cover;diff;repeats;taper;trend"
#> 
#> 
#> 
#> $scores_raw
#> # A tibble: 250 × 3
#>    component location indicator
#>    <chr>     <chr>    <lgl>    
#>  1 cover     02       TRUE     
#>  2 diff      02       FALSE    
#>  3 repeats   02       FALSE    
#>  4 taper     02       FALSE    
#>  5 trend     02       FALSE    
#>  6 cover     04       FALSE    
#>  7 diff      04       FALSE    
#>  8 repeats   04       FALSE    
#>  9 taper     04       FALSE    
#> 10 trend     04       FALSE    
#> # ℹ 240 more rows
…
