Create signal object — to_signal • rplanes
…
fp <- system.file("extdata/forecast/2022-10-31-SigSci-TSENS.csv", package = "rplanes")
ex_forecast <- read_forecast(fp)
to_signal(ex_forecast, outcome = "flu.admits", type = "forecast", horizon = 4, resolution = "weeks")
#> $data
#> # A tibble: 200 × 6
#>    location date       horizon lower point upper
#>    <chr>    <date>     <chr>   <dbl> <dbl> <dbl>
#>  1 02       2022-11-05 1           0     6    11
#>  2 02       2022-11-12 2           0     5    12
#>  3 02       2022-11-19 3           0     5    12
#>  4 02       2022-11-26 4           0     5    12
#>  5 04       2022-11-05 1          13    58   103
#>  6 04       2022-11-12 2           9    68   127
#>  7 04       2022-11-19 3           0    72   147
#>  8 04       2022-11-26 4           0    79   167
#>  9 05       2022-11-05 1          67    85   103
#> 10 05       2022-11-12 2          66    90   115
#> # ℹ 190 more rows
…
